Sentiment Analysis on Earnings Call
…
Another form of sentiment analysis we can do is classify the emotion of the speaker by using NRC database. This database scores a distinct emotional class covering Plutchiks Wheel of Emotions. The NRC database, develoepd by Saif Mohammad and Peter turney, also includes positive and negative words. Since we have already done a analysis on the positive and negative words, we will subset this scoring out and only look at emotions. Of course, we first need to look at the biggest contributors to the score and if it is appropiate for our text. Talk how this type of sentiment scoring can get tedious if we want to get a true view on emotion by adjusting emotions only since some words can be classified across all emotions.

#Get the getiments for NRC and create tibble for top NRC scores.
nrc <- get_sentiments("nrc")

nrc_score_tidy <- text_tidy %>% inner_join(nrc, by = "word") %>% anti_join(stop_words) 

## Joining, by = "word"

#Of course we need to check for possible adjustments
head(nrc_score_tidy %>% count(word,sentiment, sort = T),100)

## # A tibble: 100 x 3
##    word       sentiment        n
##    <chr>      <chr>        <int>
##  1 customer   positive        28
##  2 growth     positive        24
##  3 question   positive        18
##  4 technology positive        16
##  5 time       anticipation    15
##  6 commerce   trust           14
##  7 guidance   positive        14
##  8 guidance   trust           14
##  9 revolution anger           14
## 10 revolution anticipation    14
## # ... with 90 more rows
…
Using Afinn data base dictionary to analyze the sentiment. A score of -5 to 5 based off sentiment for each term. Developed by a danish researcher, finn Arup Nielsen. When plotting, we will also use geom_smooth(span = 0.4) to capture the overall sentiment but with a bit more weight on the index at that moment.

afinn <- get_sentiments("afinn")

#Create tibble for AFINN
text_tidy_nrc <- text_tidy  %>%  inner_join(afinn) %>% anti_join(stop_words)

## Joining, by = "word"
## Joining, by = "word"

#Of course we need to check for possible adjustments
head(text_tidy_nrc %>% count(word,score, sort = T),100)

## # A tibble: 100 x 3
##    word        score     n
##    <chr>       <int> <int>
##  1 growth          2    24
##  2 amazing         4    14
##  3 great           3    13
##  4 strong          2     9
##  5 opportunity     2     8
##  6 exciting        3     7
##  7 innovation      1     7
##  8 success         2     7
##  9 curious         1     6
## 10 significant     1     6
## # ... with 90 more rows
…
